{
  "name": "Purpleish",
  "$schema": "vscode://schemas/color-theme",
  "type": "light",
  "semanticHighlighting": true,
  "semanticTokenColors": {
    "enumMember": {
      "foreground": "#c15f0f"
    },
    "variable.constant": {
      "foreground": "#467878"
    },
    "variable.defaultLibrary": {
      "foreground": "#a17f16"
    }
  },
  "colors": {
    "activityBar.background": "#d4b5ff",
    "activityBar.border": "#936cc5",
    "activityBar.foreground": "#272727",
    "activityBar.inactiveForeground": "#936cc5",
    "activityBarBadge.background": "#936cc5",
    "activityBarBadge.foreground": "#d4b5ff",
    "badge.background": "#936cc5",
    "badge.foreground": "#d4b5ff",
    "breadcrumb.activeSelectionForeground": "#4e4e4e",
    "breadcrumb.background": "#d4b5ff",
    "breadcrumb.focusForeground": "#4e4e4e",
    "breadcrumb.foreground": "#545454",
    "button.background": "#D4B5FF",
    "button.border": "#936cc5",
    "button.foreground": "#272727",
    "button.hoverBackground": "#dac1fd",
    "button.secondaryBackground": "#5f6a79",
    "button.secondaryForeground": "#ffffff",
    "button.secondaryHoverBackground": "#4c5561",
    "checkbox.background": "#ffffff",
    "checkbox.border": "#00000000",
    "checkbox.foreground": "#616161",
    "debugExceptionWidget.background": "#f3f3f3",
    "debugExceptionWidget.border": "#d5d5d5",
    "debugToolBar.background": "#f3f3f3",
    "debugToolBar.border": "#d5d5d5",
    "diffEditor.border": "#d7d7d7",
    "diffEditor.insertedTextBackground": "#65900033",
    "diffEditor.removedTextBackground": "#ff000033",
    "dropdown.background": "#ffffff",
    "dropdown.border": "#00000000",
    "dropdown.foreground": "#616161",
    "editor.background": "#e2ceff",
    "editor.findMatchBackground": "#a8ac94",
    "editor.findMatchBorder": "#979b83",
    "editor.findMatchHighlightBackground": "#5c00ea55",
    "editor.findMatchHighlightBorder": "#ffffff00",
    "editor.findRangeHighlightBackground": "#b4b4b44d",
    "editor.findRangeHighlightBorder": "#ffffff00",
    "editor.foldBackground": "#add6ff4d",
    "editor.foreground": "#000000",
    "editor.hoverHighlightBackground": "#add6ff26",
    "editor.inactiveSelectionBackground": "#a876fb9b",
    "editor.lineHighlightBackground": "#ffffff0A",
    "editor.lineHighlightBorder": "#a9a9a9",
    "editor.rangeHighlightBackground": "#fdff0033",
    "editor.rangeHighlightBorder": "#ffffff00",
    "editor.selectionBackground": "#a876fb",
    "editor.selectionHighlightBackground": "#d27bff54",
    "editor.selectionHighlightBorder": "#996dd1",
    "editor.wordHighlightBackground": "#57575740",
    "editor.wordHighlightStrongBackground": "#0e639c40",
    "editorBracketMatch.background": "#0064001a",
    "editorBracketMatch.border": "#b9b9b9",
    "editorCodeLens.foreground": "#999999",
    "editorCursor.background": "#ffffff",
    "editorCursor.foreground": "#000000",
    "editorError.background": "#B73A3400",
    "editorError.border": "#ffffff00",
    "editorError.foreground": "#e51400",
    "editorGroup.border": "#936cc5",
    "editorGroup.emptyBackground": "#e2ceff",
    "editorGroupHeader.tabsBackground": "#e2ceff",
    "editorGroupHeader.tabsBorder": "#936cc5",
    "editorGutter.addedBackground": "#81b88b",
    "editorGutter.background": "#d4b5ff",
    "editorGutter.commentRangeForeground": "#424242",
    "editorGutter.deletedBackground": "#ca4b51",
    "editorGutter.foldingControlForeground": "#424242",
    "editorGutter.modifiedBackground": "#66afe0",
    "editorHoverWidget.background": "#d4b5ff",
    "editorHoverWidget.border": "#c8c8c8",
    "editorHoverWidget.foreground": "#50217c",
    // "editorIndentGuide.activeBackground": "#896fad",
    // "editorIndentGuide.background": "#896fad76",
    "editorInfo.background": "#4490BF00",
    "editorInfo.border": "#4490BF00",
    "editorInfo.foreground": "#75beff",
    "editorLineNumber.activeForeground": "#272727",
    "editorLineNumber.foreground": "#936cc5",
    "editorLink.activeForeground": "#0000ff",
    "editorMarkerNavigation.background": "#a3b6ff",
    "editorMarkerNavigationError.background": "#be1708",
    "editorMarkerNavigationInfo.background": "#799cbc",
    "editorMarkerNavigationWarning.background": "#c99000",
    "editorOverviewRuler.background": "#4a415700",
    "editorOverviewRuler.border": "#7f7f7f4d",
    "editorRuler.foreground": "#d3d3d3",
    "editorSuggestWidget.background": "#e2ceff",
    "editorSuggestWidget.border": "#a1a1a1",
    "editorSuggestWidget.foreground": "#000000",
    "editorSuggestWidget.highlightForeground": "#64591c",
    "editorSuggestWidget.selectedBackground": "#a660f7",
    "editorWarning.background": "#9040A900",
    "editorWarning.border": "#ffffff00",
    "editorWarning.foreground": "#8100b8",
    "editorWhitespace.foreground": "#33333333",
    "editorWidget.background": "#d4b5ff",
    "editorWidget.foreground": "#616161",
    "editorWidget.resizeBorder": "#c7c7c7",
    "focusBorder": "#d4b5ff",
    "foreground": "#272727",
    "gitDecoration.addedResourceForeground": "#587c0c",
    "gitDecoration.conflictingResourceForeground": "#6c6cc4",
    "gitDecoration.deletedResourceForeground": "#ad0707",
    "gitDecoration.ignoredResourceForeground": "#8e8e90",
    "gitDecoration.modifiedResourceForeground": "#895503",
    "gitDecoration.stageDeletedResourceForeground": "#ad0707",
    "gitDecoration.stageModifiedResourceForeground": "#895503",
    "gitDecoration.submoduleResourceForeground": "#1258a7",
    "gitDecoration.untrackedResourceForeground": "#007100",
    "icon.foreground": "#272727",
    "input.background": "#e2ceff",
    "input.border": "#d4b5ff",
    "input.foreground": "#616161",
    "input.placeholderForeground": "#767676",
    "inputOption.activeBackground": "#0090f133",
    "inputOption.activeBorder": "#007acc00",
    "inputOption.activeForeground": "#000000",
    "list.activeSelectionBackground": "#50217c80",
    "list.activeSelectionForeground": "#d4b5ff",
    "list.dropBackground": "#c9b67f",
    "list.focusBackground": "#d6ebff",
    "list.focusForeground": "#616161",
    "list.highlightForeground": "#0a44b4",
    "list.hoverBackground": "#50217c66",
    "list.hoverForeground": "#2c2c2c",
    "list.inactiveSelectionBackground": "#a3a3a39f",
    "list.inactiveSelectionForeground": "#494949",
    "listFilterWidget.background": "#efc1ad",
    "listFilterWidget.noMatchesOutline": "#be1100",
    "listFilterWidget.outline": "#00000000",
    "menu.background": "#e2ceff",
    "menu.border": "#936cc5",
    "menu.foreground": "#272727",
    "menu.selectionBackground": "#d4b5ff",
    "menu.selectionBorder": "#00000000",
    "menu.selectionForeground": "#f4f0fa",
    "menu.separatorBackground": "#888888",
    "menubar.selectionBackground": "#0000001a",
    "menubar.selectionForeground": "#333333",
    "merge.commonContentBackground": "#E5E5E5FE",
    "merge.commonHeaderBackground": "#BFBFBFFE",
    "merge.currentContentBackground": "#DBF4EFFE",
    "merge.currentHeaderBackground": "#A4E3D6FE",
    "merge.incomingContentBackground": "#DBECFFFE",
    "merge.incomingHeaderBackground": "#A6CFFFFE",
    "minimap.background": "#d4b5ff",
    "minimap.errorHighlight": "#e51400",
    "minimap.findMatchHighlight": "#a8ac94FE",
    "minimap.selectionHighlight": "#a876fbFE",
    "minimap.warningHighlight": "#b88100",
    "minimapGutter.addedBackground": "#81b88b",
    "minimapGutter.deletedBackground": "#ca4b51",
    "minimapGutter.modifiedBackground": "#66afe0",
    "minimapSlider.activeBackground": "#00000040",
    "minimapSlider.background": "#00000020",
    "minimapSlider.hoverBackground": "#00000060",
    "notificationCenter.border": "#d5d5d5",
    "notificationCenterHeader.background": "#d4b5ff",
    "notificationCenterHeader.foreground": "#50217c",
    "notifications.background": "#d4b5ff",
    "notifications.border": "#e7e7e7",
    "notifications.foreground": "#50217c",
    "notificationsErrorIcon.foreground": "#e51400",
    "notificationsInfoIcon.foreground": "#75beff",
    "notificationsWarningIcon.foreground": "#e9a700",
    "notificationToast.border": "#d5d5d5",
    "panel.background": "#d4b5ff",
    "panel.border": "#936cc5",
    "panelSection.border": "#51515159",
    "panelTitle.activeBorder": "#272727",
    "panelTitle.activeForeground": "#272727",
    "panelTitle.inactiveForeground": "#936cc5",
    "peekView.border": "#007acc",
    "peekViewEditor.background": "#a0bccf",
    "peekViewEditor.matchHighlightBackground": "#d802f5de",
    "peekViewEditor.matchHighlightBorder": "#c417db",
    "peekViewEditorGutter.background": "#a2cde2",
    "peekViewResult.background": "#86672d",
    "peekViewResult.fileForeground": "#000000",
    "peekViewResult.lineForeground": "#414141",
    "peekViewResult.matchHighlightBackground": "#ea5c004d",
    "peekViewResult.selectionBackground": "#c6d55e33",
    "peekViewResult.selectionForeground": "#e6a4a4",
    "peekViewTitle.background": "#cca2e2",
    "peekViewTitleDescription.foreground": "#616161e6",
    "peekViewTitleLabel.foreground": "#333333",
    "pickerGroup.border": "#cccedb",
    "pickerGroup.foreground": "#0066bf",
    "profileBadge.background": "#936cc5",
    "profileBadge.foreground": "#d4b5ff",
    "progressBar.background": "#c4a8ec",
    "scmGraph.foreground1":"default",
    "scmGraph.foreground2":"default",
    "scmGraph.foreground3":"default",
    "scmGraph.foreground4":"default",
    "scmGraph.foreground5":"default",
    "scmGraph.historyItemBaseRefColor":"#d4b5ff",
    "scmGraph.historyItemHoverAdditionsForeground":"default",
    "scmGraph.historyItemHoverDefaultLabelBackground":"default",
    "scmGraph.historyItemHoverDefaultLabelForeground":"default",
    "scmGraph.historyItemHoverDeletionsForeground":"default",
    "scmGraph.historyItemHoverLabelForeground":"default",
    "scmGraph.historyItemRefColor":"#c4a8ec",//"#ffbf00",
    "scmGraph.historyItemRemoteRefColor":"#c4a8ec",
    "scrollbar.shadow": "#936cc5",
    "scrollbarSlider.activeBackground": "#00000040",
    "scrollbarSlider.background": "#00000020",
    "scrollbarSlider.hoverBackground": "#00000060",
    "selection.background": "#b0daff",
    "settings.focusedRowBackground": "#ffffff07",
    "settings.headerForeground": "#868686",
    "sideBar.background": "#e2ceff",
    "sideBar.border": "#936cc5",
    "sideBar.dropBackground": "#c9b67f",
    "sideBar.foreground": "#000000",
    "sideBarSectionHeader.background": "#d4b5ff",
    "sideBarSectionHeader.border": "#61616130",
    "sideBarSectionHeader.foreground": "#454545",
    "sideBarTitle.foreground": "#000000",
    "statusBar.background": "#d4b5ff",
    "statusBar.border": "#936cc5",
    "statusBar.debuggingBackground": "#cc6633",
    "statusBar.debuggingBorder": "#936cc5",
    "statusBar.debuggingForeground": "#ffffff",
    "statusBar.foreground": "#272727",
    "statusBar.noFolderBackground": "#68217a",
    "statusBar.noFolderBorder": "#936cc5",
    "statusBar.noFolderForeground": "#ffffff",
    "statusBarItem.activeBackground": "#FFFFFF25",
    "statusBarItem.hoverBackground": "#ffffff1f",
    "statusBarItem.remoteBackground": "#16825d",
    "statusBarItem.remoteForeground": "#ffffff",
    "tab.activeBackground": "#d4b5ff",
    "tab.activeBorder": "#000000",
    "tab.activeBorderTop": "#000000",
    "tab.activeForeground": "#333333",
    "tab.border": "#936cc5",
    "tab.hoverBackground": "#d4b5ff",
    "tab.hoverBorder": "#818181",
    "tab.inactiveBackground": "#e2ceff",
    "tab.inactiveForeground": "#333333d1",
    "terminal.ansiBlack": "#000000",
    "terminal.ansiBlue": "#0451a5",
    "terminal.ansiBrightBlack": "#666666",
    "terminal.ansiBrightBlue": "#0451a5",
    "terminal.ansiBrightCyan": "#0598bc",
    "terminal.ansiBrightGreen": "#14ce14",
    "terminal.ansiBrightMagenta": "#bc05bc",
    "terminal.ansiBrightRed": "#cd3131",
    "terminal.ansiBrightWhite": "#a5a5a5",
    "terminal.ansiBrightYellow": "#b5ba00",
    "terminal.ansiCyan": "#0598bc",
    "terminal.ansiGreen": "#00bc00",
    "terminal.ansiMagenta": "#bc05bc",
    "terminal.ansiRed": "#cd3131",
    "terminal.ansiWhite": "#555555",
    "terminal.ansiYellow": "#949800",
    "terminal.background": "#e2ceff",
    "terminal.border": "#936cc5",
    "terminal.foreground": "#5e5d5d",
    "terminal.selectionBackground": "#00000040",
    "terminalCursor.background": "#0087FF",
    "terminalCursor.foreground": "#ffffff",
    "textLink.foreground": "#006ab1",
    "titleBar.activeBackground": "#d4b5ff",
    "titleBar.activeForeground": "#272727",
    "titleBar.border": "#936cc5",
    "titleBar.inactiveBackground": "#d4b5ff99",
    "titleBar.inactiveForeground": "#936cc5",
    "tree.indentGuidesStroke": "#a9a9a9",
    "walkThrough.embeddedEditorBackground": "#00000050",
    "widget.shadow": "#936cc5",
    "window.activeBorder":"#936cc5",
    "window.inactiveBorder":"#272727",
    },
  "tokenColors": [
    {
      "name": "unison punctuation",
      "scope": "punctuation.definition.delayed.unison,punctuation.definition.list.begin.unison,punctuation.definition.list.end.unison,punctuation.definition.ability.begin.unison,punctuation.definition.ability.end.unison,punctuation.operator.assignment.as.unison,punctuation.separator.pipe.unison,punctuation.separator.delimiter.unison,punctuation.definition.hash.unison",
      "settings": {
        "foreground": "#046d85"
      }
    },
    {
      "name": "haskell variable generic-type",
      "scope": "variable.other.generic-type.haskell",
      "settings": {
        "foreground": "#b7730e"
      }
    },
    {
      "name": "haskell storage type",
      "scope": "storage.type.haskell",
      "settings": {
        "foreground": "#467878"
      }
    },
    {
      "name": "support.variable.magic.python",
      "scope": "support.variable.magic.python",
      "settings": {
        "foreground": "#046d85"
      }
    },
    {
      "name": "punctuation.separator.parameters.python",
      "scope": "punctuation.separator.period.python,punctuation.separator.element.python,punctuation.parenthesis.begin.python,punctuation.parenthesis.end.python",
      "settings": {
        "foreground": "#898f98"
      }
    },
    {
      "name": "variable.parameter.function.language.special.self.python",
      "scope": "variable.parameter.function.language.special.self.python",
      "settings": {
        "foreground": "#a17f16"
      }
    },
    {
      "name": "storage.modifier.lifetime.rust",
      "scope": "storage.modifier.lifetime.rust",
      "settings": {
        "foreground": "#898f98"
      }
    },
    {
      "name": "support.function.std.rust",
      "scope": "support.function.std.rust",
      "settings": {
        "foreground": "#0082be"
      }
    },
    {
      "name": "entity.name.lifetime.rust",
      "scope": "entity.name.lifetime.rust",
      "settings": {
        "foreground": "#a17f16"
      }
    },
    {
      "name": "variable.language.rust",
      "scope": "variable.language.rust",
      "settings": {
        "foreground": "#046d85"
      }
    },
    {
      "name": "support.constant.edge",
      "scope": "support.constant.edge",
      "settings": {
        "foreground": "#b7730e"
      }
    },
    {
      "name": "regexp constant character-class",
      "scope": "constant.other.character-class.regexp",
      "settings": {
        "foreground": "#046d85"
      }
    },
    {
      "name": "regexp operator.quantifier",
      "scope": "keyword.operator.quantifier.regexp",
      "settings": {
        "foreground": "#467878"
      }
    },
    {
      "name": "punctuation.definition",
      "scope": "punctuation.definition.string.begin,punctuation.definition.string.end",
      "settings": {
        "foreground": "#538030"
      }
    },
    {
      "name": "Text",
      "scope": "variable.parameter.function",
      "settings": {
        "foreground": "#898f98"
      }
    },
    {
      "name": "Comment Markup Link",
      "scope": "comment markup.link",
      "settings": {
        "foreground": "#575e68"
      }
    },
    {
      "name": "markup diff",
      "scope": "markup.changed.diff",
      "settings": {
        "foreground": "#a17f16"
      }
    },
    {
      "name": "diff",
      "scope": "meta.diff.header.from-file,meta.diff.header.to-file,punctuation.definition.from-file.diff,punctuation.definition.to-file.diff",
      "settings": {
        "foreground": "#0082be"
      }
    },
    {
      "name": "inserted.diff",
      "scope": "markup.inserted.diff",
      "settings": {
        "foreground": "#538030"
      }
    },
    {
      "name": "deleted.diff",
      "scope": "markup.deleted.diff",
      "settings": {
        "foreground": "#046d85"
      }
    },
    {
      "name": "c++ function",
      "scope": "meta.function.c,meta.function.cpp",
      "settings": {
        "foreground": "#046d85"
      }
    },
    {
      "name": "c++ block",
      "scope": "punctuation.section.block.begin.bracket.curly.cpp,punctuation.section.block.end.bracket.curly.cpp,punctuation.terminator.statement.c,punctuation.section.block.begin.bracket.curly.c,punctuation.section.block.end.bracket.curly.c,punctuation.section.parens.begin.bracket.round.c,punctuation.section.parens.end.bracket.round.c,punctuation.section.parameters.begin.bracket.round.c,punctuation.section.parameters.end.bracket.round.c",
      "settings": {
        "foreground": "#898f98"
      }
    },
    {
      "name": "js/ts punctuation separator key-value",
      "scope": "punctuation.separator.key-value",
      "settings": {
        "foreground": "#898f98"
      }
    },
    {
      "name": "js/ts import keyword",
      "scope": "keyword.operator.expression.import",
      "settings": {
        "foreground": "#0082be"
      }
    },
    {
      "name": "math js/ts",
      "scope": "support.constant.math",
      "settings": {
        "foreground": "#a17f16"
      }
    },
    {
      "name": "math property js/ts",
      "scope": "support.constant.property.math",
      "settings": {
        "foreground": "#467878"
      }
    },
    {
      "name": "js/ts variable.other.constant",
      "scope": "variable.other.constant",
      "settings": {
        "foreground": "#a17f16"
      }
    },
    {
      "name": "java type",
      "scope": [
        "storage.type.annotation.java",
        "storage.type.object.array.java"
      ],
      "settings": {
        "foreground": "#a17f16"
      }
    },
    {
      "name": "java source",
      "scope": "source.java",
      "settings": {
        "foreground": "#046d85"
      }
    },
    {
      "name": "java modifier.import",
      "scope": "punctuation.section.block.begin.java,punctuation.section.block.end.java,punctuation.definition.method-parameters.begin.java,punctuation.definition.method-parameters.end.java,meta.method.identifier.java,punctuation.section.method.begin.java,punctuation.section.method.end.java,punctuation.terminator.java,punctuation.section.class.begin.java,punctuation.section.class.end.java,punctuation.section.inner-class.begin.java,punctuation.section.inner-class.end.java,meta.method-call.java,punctuation.section.class.begin.bracket.curly.java,punctuation.section.class.end.bracket.curly.java,punctuation.section.method.begin.bracket.curly.java,punctuation.section.method.end.bracket.curly.java,punctuation.separator.period.java,punctuation.bracket.angle.java,punctuation.definition.annotation.java,meta.method.body.java",
      "settings": {
        "foreground": "#898f98"
      }
    },
    {
      "name": "java modifier.import",
      "scope": "meta.method.java",
      "settings": {
        "foreground": "#0082be"
      }
    },
    {
      "name": "java modifier.import",
      "scope": "storage.modifier.import.java,storage.type.java,storage.type.generic.java",
      "settings": {
        "foreground": "#a17f16"
      }
    },
    {
      "name": "java instanceof",
      "scope": "keyword.operator.instanceof.java",
      "settings": {
        "foreground": "#b7730e"
      }
    },
    {
      "name": "java variable.name",
      "scope": "meta.definition.variable.name.java",
      "settings": {
        "foreground": "#046d85"
      }
    },
    {
      "name": "operator logical",
      "scope": "keyword.operator.logical",
      "settings": {
        "foreground": "#c15f0f"
      }
    },
    {
      "name": "operator bitwise",
      "scope": "keyword.operator.bitwise",
      "settings": {
        "foreground": "#c15f0f"
      }
    },
    {
      "name": "operator channel",
      "scope": "keyword.operator.channel",
      "settings": {
        "foreground": "#c15f0f"
      }
    },
    {
      "name": "support.constant.property-value.scss",
      "scope": "support.constant.property-value.scss,support.constant.property-value.css",
      "settings": {
        "foreground": "#467878"
      }
    },
    {
      "name": "CSS/SCSS/LESS Operators",
      "scope": "keyword.operator.css,keyword.operator.scss,keyword.operator.less",
      "settings": {
        "foreground": "#c15f0f"
      }
    },
    {
      "name": "css color standard name",
      "scope": "support.constant.color.w3c-standard-color-name.css,support.constant.color.w3c-standard-color-name.scss",
      "settings": {
        "foreground": "#467878"
      }
    },
    {
      "name": "css comma",
      "scope": "punctuation.separator.list.comma.css",
      "settings": {
        "foreground": "#898f98"
      }
    },
    {
      "name": "css attribute-name.id",
      "scope": "support.constant.color.w3c-standard-color-name.css",
      "settings": {
        "foreground": "#467878"
      }
    },
    {
      "name": "css property-name",
      "scope": "support.type.vendored.property-name.css",
      "settings": {
        "foreground": "#c15f0f"
      }
    },
    {
      "name": "js/ts module",
      "scope": "support.module.node,support.type.object.module,support.module.node",
      "settings": {
        "foreground": "#a17f16"
      }
    },
    {
      "name": "entity.name.type.module",
      "scope": "entity.name.type.module",
      "settings": {
        "foreground": "#a17f16"
      }
    },
    {
      "name": "js variable readwrite",
      "scope": "variable.other.readwrite,meta.object-literal.key,support.variable.property,support.variable.object.process,support.variable.object.node",
      "settings": {
        "foreground": "#046d85"
      }
    },
    {
      "name": "js/ts json",
      "scope": "support.constant.json",
      "settings": {
        "foreground": "#467878"
      }
    },
    {
      "name": "js/ts Keyword",
      "scope": [
        "keyword.operator.expression.instanceof",
        "keyword.operator.new",
        "keyword.operator.ternary",
        "keyword.operator.optional",
        "keyword.operator.expression.keyof"
      ],
      "settings": {
        "foreground": "#b7730e"
      }
    },
    {
      "name": "js/ts console",
      "scope": "support.type.object.console",
      "settings": {
        "foreground": "#046d85"
      }
    },
    {
      "name": "js/ts support.variable.property.process",
      "scope": "support.variable.property.process",
      "settings": {
        "foreground": "#467878"
      }
    },
    {
      "name": "js console function",
      "scope": "entity.name.function,support.function.console",
      "settings": {
        "foreground": "#0082be"
      }
    },
    {
      "name": "keyword.operator.misc.rust",
      "scope": "keyword.operator.misc.rust",
      "settings": {
        "foreground": "#898f98"
      }
    },
    {
      "name": "keyword.operator.sigil.rust",
      "scope": "keyword.operator.sigil.rust",
      "settings": {
        "foreground": "#b7730e"
      }
    },
    {
      "name": "operator",
      "scope": "keyword.operator.delete",
      "settings": {
        "foreground": "#b7730e"
      }
    },
    {
      "name": "js dom",
      "scope": "support.type.object.dom",
      "settings": {
        "foreground": "#c15f0f"
      }
    },
    {
      "name": "js dom variable",
      "scope": "support.variable.dom,support.variable.property.dom",
      "settings": {
        "foreground": "#046d85"
      }
    },
    {
      "name": "keyword.operator",
      "scope": "keyword.operator.arithmetic,keyword.operator.comparison,keyword.operator.decrement,keyword.operator.increment,keyword.operator.relational",
      "settings": {
        "foreground": "#c15f0f"
      }
    },
    {
      "name": "C operator assignment",
      "scope": "keyword.operator.assignment.c,keyword.operator.comparison.c,keyword.operator.c,keyword.operator.increment.c,keyword.operator.decrement.c,keyword.operator.bitwise.shift.c,keyword.operator.assignment.cpp,keyword.operator.comparison.cpp,keyword.operator.cpp,keyword.operator.increment.cpp,keyword.operator.decrement.cpp,keyword.operator.bitwise.shift.cpp",
      "settings": {
        "foreground": "#b7730e"
      }
    },
    {
      "name": "Punctuation",
      "scope": "punctuation.separator.delimiter",
      "settings": {
        "foreground": "#898f98"
      }
    },
    {
      "name": "Other punctuation .c",
      "scope": "punctuation.separator.c,punctuation.separator.cpp",
      "settings": {
        "foreground": "#b7730e"
      }
    },
    {
      "name": "C type posix-reserved",
      "scope": "support.type.posix-reserved.c,support.type.posix-reserved.cpp",
      "settings": {
        "foreground": "#c15f0f"
      }
    },
    {
      "name": "keyword.operator.sizeof.c",
      "scope": "keyword.operator.sizeof.c,keyword.operator.sizeof.cpp",
      "settings": {
        "foreground": "#b7730e"
      }
    },
    {
      "name": "python parameter",
      "scope": "variable.parameter.function.language.python",
      "settings": {
        "foreground": "#467878"
      }
    },
    {
      "name": "python type",
      "scope": "support.type.python",
      "settings": {
        "foreground": "#c15f0f"
      }
    },
    {
      "name": "python logical",
      "scope": "keyword.operator.logical.python",
      "settings": {
        "foreground": "#b7730e"
      }
    },
    {
      "name": "pyCs",
      "scope": "variable.parameter.function.python",
      "settings": {
        "foreground": "#467878"
      }
    },
    {
      "name": "python block",
      "scope": "punctuation.definition.arguments.begin.python,punctuation.definition.arguments.end.python,punctuation.separator.arguments.python,punctuation.definition.list.begin.python,punctuation.definition.list.end.python",
      "settings": {
        "foreground": "#898f98"
      }
    },
    {
      "name": "python function-call.generic",
      "scope": "meta.function-call.generic.python",
      "settings": {
        "foreground": "#0082be"
      }
    },
    {
      "name": "python placeholder reset to normal string",
      "scope": "constant.character.format.placeholder.other.python",
      "settings": {
        "foreground": "#467878"
      }
    },
    {
      "name": "Operators",
      "scope": "keyword.operator",
      "settings": {
        "foreground": "#898f98"
      }
    },
    {
      "name": "Compound Assignment Operators",
      "scope": "keyword.operator.assignment.compound",
      "settings": {
        "foreground": "#b7730e"
      }
    },
    {
      "name": "Compound Assignment Operators js/ts",
      "scope": "keyword.operator.assignment.compound.js,keyword.operator.assignment.compound.ts",
      "settings": {
        "foreground": "#c15f0f"
      }
    },
    {
      "name": "Keywords",
      "scope": "keyword",
      "settings": {
        "foreground": "#b7730e"
      }
    },
    {
      "name": "Namespaces",
      "scope": "entity.name.namespace",
      "settings": {
        "foreground": "#a17f16"
      }
    },
    {
      "name": "Variables",
      "scope": "variable",
      "settings": {
        "foreground": "#046d85"
      }
    },
    {
      "name": "Variables",
      "scope": "variable.c",
      "settings": {
        "foreground": "#898f98"
      }
    },
    {
      "name": "Language variables",
      "scope": "variable.language",
      "settings": {
        "foreground": "#a17f16"
      }
    },
    {
      "name": "Java Variables",
      "scope": "token.variable.parameter.java",
      "settings": {
        "foreground": "#898f98"
      }
    },
    {
      "name": "Java Imports",
      "scope": "import.storage.java",
      "settings": {
        "foreground": "#a17f16"
      }
    },
    {
      "name": "Packages",
      "scope": "token.package.keyword",
      "settings": {
        "foreground": "#b7730e"
      }
    },
    {
      "name": "Packages",
      "scope": "token.package",
      "settings": {
        "foreground": "#898f98"
      }
    },
    {
      "name": "Functions",
      "scope": [
        "entity.name.function",
        "meta.require",
        "support.function.any-method",
        "variable.function"
      ],
      "settings": {
        "foreground": "#0082be"
      }
    },
    {
      "name": "Classes",
      "scope": "entity.name.type.namespace",
      "settings": {
        "foreground": "#a17f16"
      }
    },
    {
      "name": "Classes",
      "scope": "support.class, entity.name.type.class",
      "settings": {
        "foreground": "#a17f16"
      }
    },
    {
      "name": "Class name",
      "scope": "entity.name.class.identifier.namespace.type",
      "settings": {
        "foreground": "#a17f16"
      }
    },
    {
      "name": "Class name",
      "scope": [
        "entity.name.class",
        "variable.other.class.js",
        "variable.other.class.ts"
      ],
      "settings": {
        "foreground": "#a17f16"
      }
    },
    {
      "name": "Class name php",
      "scope": "variable.other.class.php",
      "settings": {
        "foreground": "#046d85"
      }
    },
    {
      "name": "Type Name",
      "scope": "entity.name.type",
      "settings": {
        "foreground": "#a17f16"
      }
    },
    {
      "name": "Keyword Control",
      "scope": "keyword.control",
      "settings": {
        "foreground": "#b7730e"
      }
    },
    {
      "name": "Control Elements",
      "scope": "control.elements, keyword.operator.less",
      "settings": {
        "foreground": "#467878"
      }
    },
    {
      "name": "Methods",
      "scope": "keyword.other.special-method",
      "settings": {
        "foreground": "#0082be"
      }
    },
    {
      "name": "Storage",
      "scope": "storage",
      "settings": {
        "foreground": "#b7730e"
      }
    },
    {
      "name": "Storage JS TS",
      "scope": "token.storage",
      "settings": {
        "foreground": "#b7730e"
      }
    },
    {
      "name": "Source Js Keyword Operator Delete,source Js Keyword Operator In,source Js Keyword Operator Of,source Js Keyword Operator Instanceof,source Js Keyword Operator New,source Js Keyword Operator Typeof,source Js Keyword Operator Void",
      "scope": "keyword.operator.expression.delete,keyword.operator.expression.in,keyword.operator.expression.of,keyword.operator.expression.instanceof,keyword.operator.new,keyword.operator.expression.typeof,keyword.operator.expression.void",
      "settings": {
        "foreground": "#b7730e"
      }
    },
    {
      "name": "Java Storage",
      "scope": "token.storage.type.java",
      "settings": {
        "foreground": "#a17f16"
      }
    },
    {
      "name": "Support",
      "scope": "support.function",
      "settings": {
        "foreground": "#c15f0f"
      }
    },
    {
      "name": "Support type",
      "scope": "support.type.property-name",
      "settings": {
        "foreground": "#898f98"
      }
    },
    {
      "name": "Support type",
      "scope": "support.constant.property-value",
      "settings": {
        "foreground": "#898f98"
      }
    },
    {
      "name": "Support type",
      "scope": "support.constant.font-name",
      "settings": {
        "foreground": "#467878"
      }
    },
    {
      "name": "Meta tag",
      "scope": "meta.tag",
      "settings": {
        "foreground": "#898f98"
      }
    },
    {
      "name": "Strings",
      "scope": "string",
      "settings": {
        "foreground": "#538030"
      }
    },
    {
      "name": "Inherited Class",
      "scope": "entity.other.inherited-class",
      "settings": {
        "foreground": "#a17f16"
      }
    },
    {
      "name": "Constant other symbol",
      "scope": "constant.other.symbol",
      "settings": {
        "foreground": "#c15f0f"
      }
    },
    {
      "name": "Integers",
      "scope": "constant.numeric",
      "settings": {
        "foreground": "#467878"
      }
    },
    {
      "name": "Constants",
      "scope": "constant",
      "settings": {
        "foreground": "#467878"
      }
    },
    {
      "name": "Constants",
      "scope": "punctuation.definition.constant",
      "settings": {
        "foreground": "#467878"
      }
    },
    {
      "name": "Tags",
      "scope": "entity.name.tag",
      "settings": {
        "foreground": "#046d85"
      }
    },
    {
      "name": "Attributes",
      "scope": "entity.other.attribute-name",
      "settings": {
        "foreground": "#467878"
      }
    },
    {
      "name": "Attribute IDs",
      "scope": "entity.other.attribute-name.id",
      "settings": {
        "fontStyle": "normal",
        "foreground": "#0082be"
      }
    },
    {
      "name": "Attribute class",
      "scope": "entity.other.attribute-name.class.css",
      "settings": {
        "fontStyle": "normal",
        "foreground": "#467878"
      }
    },
    {
      "name": "Selector",
      "scope": "meta.selector",
      "settings": {
        "foreground": "#b7730e"
      }
    },
    {
      "name": "Headings",
      "scope": "markup.heading",
      "settings": {
        "foreground": "#046d85"
      }
    },
    {
      "name": "Headings",
      "scope": "markup.heading punctuation.definition.heading, entity.name.section",
      "settings": {
        "foreground": "#0082be"
      }
    },
    {
      "name": "Units",
      "scope": "keyword.other.unit",
      "settings": {
        "foreground": "#046d85"
      }
    },
    {
      "name": "Bold",
      "scope": "markup.bold,todo.bold",
      "settings": {
        "foreground": "#467878"
      }
    },
    {
      "name": "Bold",
      "scope": "punctuation.definition.bold",
      "settings": {
        "foreground": "#a17f16"
      }
    },
    {
      "name": "markup Italic",
      "scope": "markup.italic, punctuation.definition.italic,todo.emphasis",
      "settings": {
        "foreground": "#b7730e"
      }
    },
    {
      "name": "emphasis md",
      "scope": "emphasis md",
      "settings": {
        "foreground": "#b7730e"
      }
    },
    {
      "name": "[VSCODE-CUSTOM] Markdown headings",
      "scope": "entity.name.section.markdown",
      "settings": {
        "foreground": "#046d85"
      }
    },
    {
      "name": "[VSCODE-CUSTOM] Markdown heading Punctuation Definition",
      "scope": "punctuation.definition.heading.markdown",
      "settings": {
        "foreground": "#046d85"
      }
    },
    {
      "name": "punctuation.definition.list.begin.markdown",
      "scope": "punctuation.definition.list.begin.markdown",
      "settings": {
        "foreground": "#046d85"
      }
    },
    {
      "name": "[VSCODE-CUSTOM] Markdown heading setext",
      "scope": "markup.heading.setext",
      "settings": {
        "foreground": "#898f98"
      }
    },
    {
      "name": "[VSCODE-CUSTOM] Markdown Punctuation Definition Bold",
      "scope": "punctuation.definition.bold.markdown",
      "settings": {
        "foreground": "#467878"
      }
    },
    {
      "name": "[VSCODE-CUSTOM] Markdown Inline Raw",
      "scope": "markup.inline.raw.markdown",
      "settings": {
        "foreground": "#538030"
      }
    },
    {
      "name": "[VSCODE-CUSTOM] Markdown Inline Raw",
      "scope": "markup.inline.raw.string.markdown",
      "settings": {
        "foreground": "#538030"
      }
    },
    {
      "name": "[VSCODE-CUSTOM] Markdown List Punctuation Definition",
      "scope": "punctuation.definition.list.markdown",
      "settings": {
        "foreground": "#046d85"
      }
    },
    {
      "name": "[VSCODE-CUSTOM] Markdown Punctuation Definition String",
      "scope": [
        "punctuation.definition.string.begin.markdown",
        "punctuation.definition.string.end.markdown",
        "punctuation.definition.metadata.markdown"
      ],
      "settings": {
        "foreground": "#046d85"
      }
    },
    {
      "name": "beginning.punctuation.definition.list.markdown",
      "scope": ["beginning.punctuation.definition.list.markdown"],
      "settings": {
        "foreground": "#046d85"
      }
    },
    {
      "name": "[VSCODE-CUSTOM] Markdown Punctuation Definition Link",
      "scope": "punctuation.definition.metadata.markdown",
      "settings": {
        "foreground": "#046d85"
      }
    },
    {
      "name": "[VSCODE-CUSTOM] Markdown Underline Link/Image",
      "scope": "markup.underline.link.markdown,markup.underline.link.image.markdown",
      "settings": {
        "foreground": "#b7730e"
      }
    },
    {
      "name": "[VSCODE-CUSTOM] Markdown Link Title/Description",
      "scope": "string.other.link.title.markdown,string.other.link.description.markdown",
      "settings": {
        "foreground": "#0082be"
      }
    },
    {
      "name": "Regular Expressions",
      "scope": "string.regexp",
      "settings": {
        "foreground": "#c15f0f"
      }
    },
    {
      "name": "Escape Characters",
      "scope": "constant.character.escape",
      "settings": {
        "foreground": "#c15f0f"
      }
    },
    {
      "name": "Embedded",
      "scope": "punctuation.section.embedded, variable.interpolation",
      "settings": {
        "foreground": "#046d85"
      }
    },
    {
      "name": "Embedded",
      "scope": "punctuation.section.embedded.begin,punctuation.section.embedded.end",
      "settings": {
        "foreground": "#b7730e"
      }
    },
    {
      "name": "illegal",
      "scope": "invalid.illegal",
      "settings": {
        "foreground": "#ff000088"
      }
    },
    {
      "name": "illegal",
      "scope": "invalid.illegal.bad-ampersand.html",
      "settings": {
        "foreground": "#898f98"
      }
    },
    {
      "name": "Broken",
      "scope": "invalid.broken",
      "settings": {
        "foreground": "#ff000088"
      }
    },
    {
      "name": "Deprecated",
      "scope": "invalid.deprecated",
      "settings": {
        "foreground": "#ff000088"
      }
    },
    {
      "name": "Unimplemented",
      "scope": "invalid.unimplemented",
      "settings": {
        "foreground": "#ff000088"
      }
    },
    {
      "name": "Source Json Meta Structure Dictionary Json > String Quoted Json",
      "scope": "source.json meta.structure.dictionary.json > string.quoted.json",
      "settings": {
        "foreground": "#046d85"
      }
    },
    {
      "name": "Source Json Meta Structure Dictionary Json > String Quoted Json > Punctuation String",
      "scope": "source.json meta.structure.dictionary.json > string.quoted.json > punctuation.string",
      "settings": {
        "foreground": "#046d85"
      }
    },
    {
      "name": "Source Json Meta Structure Dictionary Json > Value Json > String Quoted Json,source Json Meta Structure Array Json > Value Json > String Quoted Json,source Json Meta Structure Dictionary Json > Value Json > String Quoted Json > Punctuation,source Json Meta Structure Array Json > Value Json > String Quoted Json > Punctuation",
      "scope": "source.json meta.structure.dictionary.json > value.json > string.quoted.json,source.json meta.structure.array.json > value.json > string.quoted.json,source.json meta.structure.dictionary.json > value.json > string.quoted.json > punctuation,source.json meta.structure.array.json > value.json > string.quoted.json > punctuation",
      "settings": {
        "foreground": "#538030"
      }
    },
    {
      "name": "Source Json Meta Structure Dictionary Json > Constant Language Json,source Json Meta Structure Array Json > Constant Language Json",
      "scope": "source.json meta.structure.dictionary.json > constant.language.json,source.json meta.structure.array.json > constant.language.json",
      "settings": {
        "foreground": "#c15f0f"
      }
    },
    {
      "name": "[VSCODE-CUSTOM] JSON Property Name",
      "scope": "support.type.property-name.json",
      "settings": {
        "foreground": "#046d85"
      }
    },
    {
      "name": "[VSCODE-CUSTOM] JSON Punctuation for Property Name",
      "scope": "support.type.property-name.json punctuation",
      "settings": {
        "foreground": "#046d85"
      }
    },
    {
      "name": "laravel blade tag",
      "scope": "text.html.laravel-blade source.php.embedded.line.html entity.name.tag.laravel-blade",
      "settings": {
        "foreground": "#b7730e"
      }
    },
    {
      "name": "laravel blade @",
      "scope": "text.html.laravel-blade source.php.embedded.line.html support.constant.laravel-blade",
      "settings": {
        "foreground": "#b7730e"
      }
    },
    {
      "name": "use statement for other classes",
      "scope": "support.other.namespace.use.php,support.other.namespace.use-as.php,support.other.namespace.php,entity.other.alias.php,meta.interface.php",
      "settings": {
        "foreground": "#a17f16"
      }
    },
    {
      "name": "error suppression",
      "scope": "keyword.operator.error-control.php",
      "settings": {
        "foreground": "#b7730e"
      }
    },
    {
      "name": "php instanceof",
      "scope": "keyword.operator.type.php",
      "settings": {
        "foreground": "#b7730e"
      }
    },
    {
      "name": "style double quoted array index normal begin",
      "scope": "punctuation.section.array.begin.php",
      "settings": {
        "foreground": "#898f98"
      }
    },
    {
      "name": "style double quoted array index normal end",
      "scope": "punctuation.section.array.end.php",
      "settings": {
        "foreground": "#898f98"
      }
    },
    {
      "name": "php illegal.non-null-typehinted",
      "scope": "invalid.illegal.non-null-typehinted.php",
      "settings": {
        "foreground": "#f44747"
      }
    },
    {
      "name": "php types",
      "scope": "storage.type.php,meta.other.type.phpdoc.php,keyword.other.type.php,keyword.other.array.phpdoc.php",
      "settings": {
        "foreground": "#a17f16"
      }
    },
    {
      "name": "php call-function",
      "scope": "meta.function-call.php,meta.function-call.object.php,meta.function-call.static.php",
      "settings": {
        "foreground": "#0082be"
      }
    },
    {
      "name": "php function-resets",
      "scope": "punctuation.definition.parameters.begin.bracket.round.php,punctuation.definition.parameters.end.bracket.round.php,punctuation.separator.delimiter.php,punctuation.section.scope.begin.php,punctuation.section.scope.end.php,punctuation.terminator.expression.php,punctuation.definition.arguments.begin.bracket.round.php,punctuation.definition.arguments.end.bracket.round.php,punctuation.definition.storage-type.begin.bracket.round.php,punctuation.definition.storage-type.end.bracket.round.php,punctuation.definition.array.begin.bracket.round.php,punctuation.definition.array.end.bracket.round.php,punctuation.definition.begin.bracket.round.php,punctuation.definition.end.bracket.round.php,punctuation.definition.begin.bracket.curly.php,punctuation.definition.end.bracket.curly.php,punctuation.definition.section.switch-block.end.bracket.curly.php,punctuation.definition.section.switch-block.start.bracket.curly.php,punctuation.definition.section.switch-block.begin.bracket.curly.php,punctuation.definition.section.switch-block.end.bracket.curly.php",
      "settings": {
        "foreground": "#898f98"
      }
    },
    {
      "name": "support php constants",
      "scope": "support.constant.core.rust",
      "settings": {
        "foreground": "#467878"
      }
    },
    {
      "name": "support php constants",
      "scope": "support.constant.ext.php,support.constant.std.php,support.constant.core.php,support.constant.parser-token.php",
      "settings": {
        "foreground": "#467878"
      }
    },
    {
      "name": "php goto",
      "scope": "entity.name.goto-label.php,support.other.php",
      "settings": {
        "foreground": "#0082be"
      }
    },
    {
      "name": "php logical/bitwise operator",
      "scope": "keyword.operator.logical.php,keyword.operator.bitwise.php,keyword.operator.arithmetic.php",
      "settings": {
        "foreground": "#c15f0f"
      }
    },
    {
      "name": "php regexp operator",
      "scope": "keyword.operator.regexp.php",
      "settings": {
        "foreground": "#b7730e"
      }
    },
    {
      "name": "php comparison",
      "scope": "keyword.operator.comparison.php",
      "settings": {
        "foreground": "#c15f0f"
      }
    },
    {
      "name": "php heredoc/nowdoc",
      "scope": "keyword.operator.heredoc.php,keyword.operator.nowdoc.php",
      "settings": {
        "foreground": "#b7730e"
      }
    },
    {
      "name": "python function decorator @",
      "scope": "meta.function.decorator.python",
      "settings": {
        "foreground": "#0082be"
      }
    },
    {
      "name": "python function support",
      "scope": "support.token.decorator.python,meta.function.decorator.identifier.python",
      "settings": {
        "foreground": "#c15f0f"
      }
    },
    {
      "name": "parameter function js/ts",
      "scope": "function.parameter",
      "settings": {
        "foreground": "#898f98"
      }
    },
    {
      "name": "brace function",
      "scope": "function.brace",
      "settings": {
        "foreground": "#898f98"
      }
    },
    {
      "name": "parameter function ruby cs",
      "scope": "function.parameter.ruby, function.parameter.cs",
      "settings": {
        "foreground": "#898f98"
      }
    },
    {
      "name": "constant.language.symbol.ruby",
      "scope": "constant.language.symbol.ruby",
      "settings": {
        "foreground": "#c15f0f"
      }
    },
    {
      "name": "rgb-value",
      "scope": "rgb-value",
      "settings": {
        "foreground": "#c15f0f"
      }
    },
    {
      "name": "rgb value",
      "scope": "inline-color-decoration rgb-value",
      "settings": {
        "foreground": "#467878"
      }
    },
    {
      "name": "rgb value less",
      "scope": "less rgb-value",
      "settings": {
        "foreground": "#467878"
      }
    },
    {
      "name": "sass selector",
      "scope": "selector.sass",
      "settings": {
        "foreground": "#046d85"
      }
    },
    {
      "name": "ts primitive/builtin types",
      "scope": "support.type.primitive.ts,support.type.builtin.ts,support.type.primitive.tsx,support.type.builtin.tsx",
      "settings": {
        "foreground": "#a17f16"
      }
    },
    {
      "name": "block scope",
      "scope": "block.scope.end,block.scope.begin",
      "settings": {
        "foreground": "#898f98"
      }
    },
    {
      "name": "cs storage type",
      "scope": "storage.type.cs",
      "settings": {
        "foreground": "#a17f16"
      }
    },
    {
      "name": "cs local variable",
      "scope": "entity.name.variable.local.cs",
      "settings": {
        "foreground": "#046d85"
      }
    },
    {
      "scope": "token.info-token",
      "settings": {
        "foreground": "#0082be"
      }
    },
    {
      "scope": "token.warn-token",
      "settings": {
        "foreground": "#467878"
      }
    },
    {
      "scope": "token.error-token",
      "settings": {
        "foreground": "#f44747"
      }
    },
    {
      "scope": "token.debug-token",
      "settings": {
        "foreground": "#b7730e"
      }
    },
    {
      "name": "String interpolation",
      "scope": [
        "punctuation.definition.template-expression.begin",
        "punctuation.definition.template-expression.end",
        "punctuation.section.embedded"
      ],
      "settings": {
        "foreground": "#b7730e"
      }
    },
    {
      "name": "Reset JavaScript string interpolation expression",
      "scope": ["meta.template.expression"],
      "settings": {
        "foreground": "#898f98"
      }
    },
    {
      "name": "Import module JS",
      "scope": ["keyword.operator.module"],
      "settings": {
        "foreground": "#b7730e"
      }
    },
    {
      "name": "js Flowtype",
      "scope": ["support.type.type.flowtype"],
      "settings": {
        "foreground": "#0082be"
      }
    },
    {
      "name": "js Flow",
      "scope": ["support.type.primitive"],
      "settings": {
        "foreground": "#a17f16"
      }
    },
    {
      "name": "js class prop",
      "scope": ["meta.property.object"],
      "settings": {
        "foreground": "#046d85"
      }
    },
    {
      "name": "js func parameter",
      "scope": ["variable.parameter.function.js"],
      "settings": {
        "foreground": "#046d85"
      }
    },
    {
      "name": "js template literals begin",
      "scope": ["keyword.other.template.begin"],
      "settings": {
        "foreground": "#538030"
      }
    },
    {
      "name": "js template literals end",
      "scope": ["keyword.other.template.end"],
      "settings": {
        "foreground": "#538030"
      }
    },
    {
      "name": "js template literals variable braces begin",
      "scope": ["keyword.other.substitution.begin"],
      "settings": {
        "foreground": "#538030"
      }
    },
    {
      "name": "js template literals variable braces end",
      "scope": ["keyword.other.substitution.end"],
      "settings": {
        "foreground": "#538030"
      }
    },
    {
      "name": "js operator.assignment",
      "scope": ["keyword.operator.assignment"],
      "settings": {
        "foreground": "#c15f0f"
      }
    },
    {
      "name": "go operator",
      "scope": ["keyword.operator.assignment.go"],
      "settings": {
        "foreground": "#a17f16"
      }
    },
    {
      "name": "go operator",
      "scope": [
        "keyword.operator.arithmetic.go",
        "keyword.operator.address.go"
      ],
      "settings": {
        "foreground": "#b7730e"
      }
    },
    {
      "name": "Go package name",
      "scope": ["entity.name.package.go"],
      "settings": {
        "foreground": "#a17f16"
      }
    },
    {
      "name": "elm prelude",
      "scope": ["support.type.prelude.elm"],
      "settings": {
        "foreground": "#c15f0f"
      }
    },
    {
      "name": "elm constant",
      "scope": ["support.constant.elm"],
      "settings": {
        "foreground": "#467878"
      }
    },
    {
      "name": "template literal",
      "scope": ["punctuation.quasi.element"],
      "settings": {
        "foreground": "#b7730e"
      }
    },
    {
      "name": "html/pug (jade) escaped characters and entities",
      "scope": ["constant.character.entity"],
      "settings": {
        "foreground": "#046d85"
      }
    },
    {
      "name": "styling css pseudo-elements/classes to be able to differentiate from classes which are the same colour",
      "scope": [
        "entity.other.attribute-name.pseudo-element",
        "entity.other.attribute-name.pseudo-class"
      ],
      "settings": {
        "foreground": "#c15f0f"
      }
    },
    {
      "name": "Clojure globals",
      "scope": ["entity.global.clojure"],
      "settings": {
        "foreground": "#a17f16"
      }
    },
    {
      "name": "Clojure symbols",
      "scope": ["meta.symbol.clojure"],
      "settings": {
        "foreground": "#046d85"
      }
    },
    {
      "name": "Clojure constants",
      "scope": ["constant.keyword.clojure"],
      "settings": {
        "foreground": "#c15f0f"
      }
    },
    {
      "name": "CoffeeScript Function Argument",
      "scope": ["meta.arguments.coffee", "variable.parameter.function.coffee"],
      "settings": {
        "foreground": "#046d85"
      }
    },
    {
      "name": "Ini Default Text",
      "scope": ["source.ini"],
      "settings": {
        "foreground": "#538030"
      }
    },
    {
      "name": "Makefile prerequisities",
      "scope": ["meta.scope.prerequisites.makefile"],
      "settings": {
        "foreground": "#046d85"
      }
    },
    {
      "name": "Makefile text colour",
      "scope": ["source.makefile"],
      "settings": {
        "foreground": "#a17f16"
      }
    },
    {
      "name": "Groovy import names",
      "scope": ["storage.modifier.import.groovy"],
      "settings": {
        "foreground": "#a17f16"
      }
    },
    {
      "name": "Groovy Methods",
      "scope": ["meta.method.groovy"],
      "settings": {
        "foreground": "#0082be"
      }
    },
    {
      "name": "Groovy Variables",
      "scope": ["meta.definition.variable.name.groovy"],
      "settings": {
        "foreground": "#046d85"
      }
    },
    {
      "name": "Groovy Inheritance",
      "scope": ["meta.definition.class.inherited.classes.groovy"],
      "settings": {
        "foreground": "#538030"
      }
    },
    {
      "name": "HLSL Semantic",
      "scope": ["support.variable.semantic.hlsl"],
      "settings": {
        "foreground": "#a17f16"
      }
    },
    {
      "name": "HLSL Types",
      "scope": [
        "support.type.texture.hlsl",
        "support.type.sampler.hlsl",
        "support.type.object.hlsl",
        "support.type.object.rw.hlsl",
        "support.type.fx.hlsl",
        "support.type.object.hlsl"
      ],
      "settings": {
        "foreground": "#b7730e"
      }
    },
    {
      "name": "SQL Variables",
      "scope": ["text.variable", "text.bracketed"],
      "settings": {
        "foreground": "#046d85"
      }
    },
    {
      "name": "types",
      "scope": ["support.type.swift", "support.type.vb.asp"],
      "settings": {
        "foreground": "#a17f16"
      }
    },
    {
      "name": "heading 1, keyword",
      "scope": ["entity.name.function.xi"],
      "settings": {
        "foreground": "#a17f16"
      }
    },
    {
      "name": "heading 2, callable",
      "scope": ["entity.name.class.xi"],
      "settings": {
        "foreground": "#c15f0f"
      }
    },
    {
      "name": "heading 3, property",
      "scope": ["constant.character.character-class.regexp.xi"],
      "settings": {
        "foreground": "#046d85"
      }
    },
    {
      "name": "heading 4, type, class, interface",
      "scope": ["constant.regexp.xi"],
      "settings": {
        "foreground": "#b7730e"
      }
    },
    {
      "name": "heading 5, enums, preprocessor, constant, decorator",
      "scope": ["keyword.control.xi"],
      "settings": {
        "foreground": "#c15f0f"
      }
    },
    {
      "name": "heading 6, number",
      "scope": ["invalid.xi"],
      "settings": {
        "foreground": "#898f98"
      }
    },
    {
      "name": "string",
      "scope": ["beginning.punctuation.definition.quote.markdown.xi"],
      "settings": {
        "foreground": "#538030"
      }
    },
    {
      "name": "comments",
      "scope": ["beginning.punctuation.definition.list.markdown.xi"],
      "settings": {
        "foreground": "#575e68"
      }
    },
    {
      "name": "link",
      "scope": ["constant.character.xi"],
      "settings": {
        "foreground": "#0082be"
      }
    },
    {
      "name": "accent",
      "scope": ["accent.xi"],
      "settings": {
        "foreground": "#0082be"
      }
    },
    {
      "name": "wikiword",
      "scope": ["wikiword.xi"],
      "settings": {
        "foreground": "#467878"
      }
    },
    {
      "name": "language operators like '+', '-' etc",
      "scope": ["constant.other.color.rgb-value.xi"],
      "settings": {
        "foreground": "#ffffff"
      }
    },
    {
      "name": "elements to dim",
      "scope": ["punctuation.definition.tag.xi"],
      "settings": {
        "foreground": "#575e68"
      }
    },
    {
      "name": "C++/C#",
      "scope": [
        "entity.name.label.cs",
        "entity.name.scope-resolution.function.call",
        "entity.name.scope-resolution.function.definition"
      ],
      "settings": {
        "foreground": "#a17f16"
      }
    },
    {
      "name": "Markdown underscore-style headers",
      "scope": [
        "entity.name.label.cs",
        "markup.heading.setext.1.markdown",
        "markup.heading.setext.2.markdown"
      ],
      "settings": {
        "foreground": "#046d85"
      }
    },
    {
      "name": "meta.brace.square",
      "scope": [" meta.brace.square"],
      "settings": {
        "foreground": "#898f98"
      }
    },
    {
      "name": "Comments",
      "scope": "comment, punctuation.definition.comment",
      "settings": {
        "fontStyle": "italic",
        "foreground": "#575e68"
      }
    },
    {
      "name": "[VSCODE-CUSTOM] Markdown Quote",
      "scope": "markup.quote.markdown",
      "settings": {
        "foreground": "#575e68"
      }
    },
    {
      "name": "punctuation.definition.block.sequence.item.yaml",
      "scope": "punctuation.definition.block.sequence.item.yaml",
      "settings": {
        "foreground": "#898f98"
      }
    },
    {
      "scope": ["constant.language.symbol.elixir"],
      "settings": {
        "foreground": "#c15f0f"
      }
    },
    {
      "name": "js/ts italic",
      "scope": "entity.other.attribute-name.js,entity.other.attribute-name.ts,entity.other.attribute-name.jsx,entity.other.attribute-name.tsx,variable.parameter,variable.language.super",
      "settings": {
        "fontStyle": "italic"
      }
    },
    {
      "name": "comment",
      "scope": "comment.line.double-slash,comment.block.documentation",
      "settings": {
        "fontStyle": "italic"
      }
    },
    {
      "name": "Python Keyword Control",
      "scope": "keyword.control.import.python,keyword.control.flow.python",
      "settings": {
        "fontStyle": "italic"
      }
    },
    {
      "name": "markup.italic.markdown",
      "scope": "markup.italic.markdown",
      "settings": {
        "fontStyle": "italic"
      }
    }
  ],
}
